<?xml version="1.0" encoding="utf-8"?>
<!-- Generator: Adobe Illustrator 17.0.0, SVG Export Plug-In . SVG Version: 6.00 Build 0)  -->
<!DOCTYPE svg PUBLIC "-//W3C//DTD SVG 1.1//EN" "http://www.w3.org/Graphics/SVG/1.1/DTD/svg11.dtd">
<svg version="1.1" id="Layer_1" xmlns="http://www.w3.org/2000/svg" xmlns:xlink="http://www.w3.org/1999/xlink" x="0px" y="0px"
	 width="17.009px" height="23px" viewBox="0 0 17.009 23" enable-background="new 0 0 17.009 23" xml:space="preserve">
<path fill-rule="evenodd" clip-rule="evenodd" fill="none" d="M16.432,13.103L2.369,22.551C2.119,22.826,1.765,23,1.369,23
	C0.613,23,0,22.376,0,21.606V1.394C0,0.624,0.613,0,1.369,0c0.403,0,0.762,0.181,1.012,0.463l14.051,10.13
	c0.412,0.295,0.61,0.778,0.572,1.255C17.042,12.325,16.844,12.809,16.432,13.103z"/>
</svg>
